%YAML 1.1
%TAG !u! tag:unity3d.com,2011:
--- !u!114 &2678436078458710009
MonoBehaviour:
  m_ObjectHideFlags: 0
  m_CorrespondingSourceObject: {fileID: 0}
  m_PrefabInstance: {fileID: 0}
  m_PrefabAsset: {fileID: 0}
  m_GameObject: {fileID: 8673070531194794582}
  m_Enabled: 1
  m_EditorHideFlags: 0
  m_Script: {fileID: 11500000, guid: 772c55fa570aaca47847d57ce878c152, type: 3}
  m_Name: 
  m_EditorClassIdentifier: 
  _liveTime: 1.5
--- !u!1001 &8403020243257724679
PrefabInstance:
  m_ObjectHideFlags: 0
  serializedVersion: 2
  m_Modification:
    m_TransformParent: {fileID: 0}
    m_Modifications:
    - target: {fileID: -8679921383154817045, guid: 792c3591a3d7f374ca032c64b60aefa0,
        type: 3}
      propertyPath: m_LocalPosition.x
      value: 0
      objectReference: {fileID: 0}
    - target: {fileID: -8679921383154817045, guid: 792c3591a3d7f374ca032c64b60aefa0,
        type: 3}
      propertyPath: m_LocalPosition.y
      value: 0
      objectReference: {fileID: 0}
    - target: {fileID: -8679921383154817045, guid: 792c3591a3d7f374ca032c64b60aefa0,
        type: 3}
      propertyPath: m_LocalPosition.z
      value: 2.35
      objectReference: {fileID: 0}
    - target: {fileID: -8679921383154817045, guid: 792c3591a3d7f374ca032c64b60aefa0,
        type: 3}
      propertyPath: m_LocalRotation.x
      value: 0
      objectReference: {fileID: 0}
    - target: {fileID: -8679921383154817045, guid: 792c3591a3d7f374ca032c64b60aefa0,
        type: 3}
      propertyPath: m_LocalRotation.y
      value: 0
      objectReference: {fileID: 0}
    - target: {fileID: -8679921383154817045, guid: 792c3591a3d7f374ca032c64b60aefa0,
        type: 3}
      propertyPath: m_LocalRotation.z
      value: 0
      objectReference: {fileID: 0}
    - target: {fileID: -8679921383154817045, guid: 792c3591a3d7f374ca032c64b60aefa0,
        type: 3}
      propertyPath: m_LocalRotation.w
      value: 1
      objectReference: {fileID: 0}
    - target: {fileID: -8679921383154817045, guid: 792c3591a3d7f374ca032c64b60aefa0,
        type: 3}
      propertyPath: m_RootOrder
      value: 0
      objectReference: {fileID: 0}
    - target: {fileID: -8679921383154817045, guid: 792c3591a3d7f374ca032c64b60aefa0,
        type: 3}
      propertyPath: m_LocalEulerAnglesHint.x
      value: 0
      objectReference: {fileID: 0}
    - target: {fileID: -8679921383154817045, guid: 792c3591a3d7f374ca032c64b60aefa0,
        type: 3}
      propertyPath: m_LocalEulerAnglesHint.y
      value: 0
      objectReference: {fileID: 0}
    - target: {fileID: -8679921383154817045, guid: 792c3591a3d7f374ca032c64b60aefa0,
        type: 3}
      propertyPath: m_LocalEulerAnglesHint.z
      value: 0
      objectReference: {fileID: 0}
    - target: {fileID: -8679921383154817045, guid: 792c3591a3d7f374ca032c64b60aefa0,
        type: 3}
      propertyPath: m_LocalScale.x
      value: 1
      objectReference: {fileID: 0}
    - target: {fileID: -8679921383154817045, guid: 792c3591a3d7f374ca032c64b60aefa0,
        type: 3}
      propertyPath: m_LocalScale.y
      value: 1
      objectReference: {fileID: 0}
    - target: {fileID: -8679921383154817045, guid: 792c3591a3d7f374ca032c64b60aefa0,
        type: 3}
      propertyPath: m_LocalScale.z
      value: 1
      objectReference: {fileID: 0}
    - target: {fileID: -7511558181221131132, guid: 792c3591a3d7f374ca032c64b60aefa0,
        type: 3}
      propertyPath: m_Materials.Array.data[0]
      value: 
      objectReference: {fileID: 2100000, guid: 573fa0555cb60e1488828b3090b9df7d, type: 2}
    - target: {fileID: 919132149155446097, guid: 792c3591a3d7f374ca032c64b60aefa0,
        type: 3}
      propertyPath: m_Name
      value: NewSpear
      objectReference: {fileID: 0}
    m_RemovedComponents: []
  m_SourcePrefab: {fileID: 100100000, guid: 792c3591a3d7f374ca032c64b60aefa0, type: 3}
--- !u!1 &8673070531194794582 stripped
GameObject:
  m_CorrespondingSourceObject: {fileID: 919132149155446097, guid: 792c3591a3d7f374ca032c64b60aefa0,
    type: 3}
  m_PrefabInstance: {fileID: 8403020243257724679}
  m_PrefabAsset: {fileID: 0}
